{
	"_type": "export",
	"__export_format": 3,
	"__export_date": "2019-01-08T08:39:03.028Z",
	"__export_source": "insomnia.desktop.app:v6.3.2",
	"resources": [
		{
			"_id": "wrk_b248e151e27c40b5953317573cfc318d",
			"created": 1546820937780,
			"description": "",
			"modified": 1546820937780,
			"name": "Insomnia",
			"parentId": null,
			"_type": "workspace"
		},
		{
			"_id": "env_e8108362535741a996a6f82bfb9ffd0b",
			"color": null,
			"created": 1546820937824,
			"data": {},
			"isPrivate": false,
			"metaSortKey": 1546820937824,
			"modified": 1546820937824,
			"name": "New Environment",
			"parentId": "wrk_b248e151e27c40b5953317573cfc318d",
			"_type": "environment"
		},
		{
			"_id": "jar_76a160765e43453794679dfd41afc90e",
			"cookies": [
				{
					"creation": "2019-01-07T00:30:25.970Z",
					"domain": "localhost",
					"hostOnly": true,
					"httpOnly": true,
					"id": "36311568506493774",
					"key": "AmIGoodOrNot",
					"lastAccessed": "2019-01-07T00:30:25.970Z",
					"path": "/",
					"value": "s%3A8BO54ZMQe3dFN2bsqMYp6gCYcQUt27Uu.VAALQyWH5H7EdlN7u43BA8%2BfNM8bHaSbTa8Aop0nzdQ"
				}
			],
			"created": 1546820937826,
			"modified": 1546821025971,
			"name": "Default Jar",
			"parentId": "wrk_b248e151e27c40b5953317573cfc318d",
			"_type": "cookie_jar"
		},
		{
			"_id": "fld_08b4600c772c401ba95a7f6a87725613",
			"created": 1546874210640,
			"description": "",
			"environment": {},
			"metaSortKey": -1546874210640,
			"modified": 1546885209420,
			"name": "/blog",
			"parentId": "wrk_b248e151e27c40b5953317573cfc318d",
			"_type": "request_group"
		},
		{
			"_id": "fld_a6aba940d79d47c6baf3689cbe588a44",
			"created": 1546885445769,
			"description": "",
			"environment": {},
			"metaSortKey": -1546885445769,
			"modified": 1546885445769,
			"name": "/admin",
			"parentId": "wrk_b248e151e27c40b5953317573cfc318d",
			"_type": "request_group"
		},
		{
			"_id": "env_f23898e3b1124575b41df2514d7c39e5",
			"color": null,
			"created": 1546884289197,
			"data": {},
			"isPrivate": false,
			"metaSortKey": 1546884289197,
			"modified": 1546884289197,
			"name": "New Environment",
			"parentId": "env_e8108362535741a996a6f82bfb9ffd0b",
			"_type": "environment"
		},
		{
			"_id": "fld_fff9a19feb7045fc84a57f1d0710a7cb",
			"created": 1546885249862,
			"description": "",
			"environment": {},
			"metaSortKey": -1546821001731,
			"modified": 1546885347655,
			"name": "/filter",
			"parentId": "fld_08b4600c772c401ba95a7f6a87725613",
			"_type": "request_group"
		},
		{
			"_id": "req_5c81eed9ce494220820cab36a70d547f",
			"authentication": {},
			"body": {},
			"created": 1546821001880,
			"description": "",
			"headers": [],
			"isPrivate": false,
			"metaSortKey": -1546821001981,
			"method": "GET",
			"modified": 1546895533623,
			"name": "/",
			"parameters": [],
			"parentId": "fld_08b4600c772c401ba95a7f6a87725613",
			"settingDisableRenderRequestBody": false,
			"settingEncodeUrl": true,
			"settingMaxTimelineDataSize": 1000,
			"settingRebuildPath": true,
			"settingSendCookies": true,
			"settingStoreCookies": true,
			"url": "http://localhost:4200/blog",
			"_type": "request"
		},
		{
			"_id": "req_cbf3d6d2056e4a8c8088b863ba5cb99e",
			"authentication": {},
			"body": {
				"mimeType": "application/json",
				"text": "{\n\t\"title\": \"test test test 1 2 3\",\n\t\"author\": \"Colton Kuvalis\",\n\t\"date\": \"1973-04-03T23:35:46.892Z\",\n\t\"text\": \"Aperiam enim facere. Eos repudiandae illum omnis quisquam totam ut consequuntur. Exercitationem omnis hic dignissimos. Sequi molestiae facilis maiores. Ullam dolorem vel vitae excepturi ab perferendis. Inventore inventore nemo laudantium vero dolor. Aut asperiores aliquam ab dolor impedit qui et tenetur illo. Reprehenderit pariatur atque officiis. Et ullam vero maiores at quas omnis et et. In beatae ullam unde perspiciatis eveniet sit facere. Cupiditate ratione aut quidem laborum aut enim velit aut asperiores. Odio reprehenderit earum quam inventore est. Sed dolorem beatae mollitia nam dolor. Aliquam temporibus beatae numquam provident nihil ipsam voluptatem at est. Sint distinctio ut error in recusandae laborum. Quos iure sequi qui dolorem debitis minima ut nostrum iste.\",\n\t\"tags\": [\n\t\t\"et\",\n\t\t\"aut\",\n\t\t\"provident\"\n\t],\n\t\"views\": 22,\n\t\"comments\": [\n\t\t\"Beatae perferendis voluptas.\",\n\t\t\"Veritatis sit illum illo.\"\n\t],\n\t\"scores\": [\n\t\t1,\n\t\t4,\n\t\t3,\n\t\t5,\n\t\t6,\n\t\t7,\n\t\t9\n\t]\n}"
			},
			"created": 1546874269234,
			"description": "",
			"headers": [
				{
					"id": "pair_f575c6fdd6b54def98b283123f923b44",
					"name": "Content-Type",
					"value": "application/json"
				}
			],
			"isPrivate": false,
			"metaSortKey": -1546821001956,
			"method": "POST",
			"modified": 1546896024561,
			"name": "/article",
			"parameters": [],
			"parentId": "fld_08b4600c772c401ba95a7f6a87725613",
			"settingDisableRenderRequestBody": false,
			"settingEncodeUrl": true,
			"settingMaxTimelineDataSize": 1000,
			"settingRebuildPath": true,
			"settingSendCookies": true,
			"settingStoreCookies": true,
			"url": "http://localhost:4200/blog/article",
			"_type": "request"
		},
		{
			"_id": "req_5db507cc063e46bc92cfd779796cd3d7",
			"authentication": {},
			"body": {},
			"created": 1546884234261,
			"description": "",
			"headers": [],
			"isPrivate": false,
			"metaSortKey": -1546821001931,
			"method": "GET",
			"modified": 1546896103923,
			"name": "/article/:id",
			"parameters": [],
			"parentId": "fld_08b4600c772c401ba95a7f6a87725613",
			"settingDisableRenderRequestBody": false,
			"settingEncodeUrl": true,
			"settingMaxTimelineDataSize": 1000,
			"settingRebuildPath": true,
			"settingSendCookies": true,
			"settingStoreCookies": true,
			"url": "http://localhost:4200/blog/article/test-test-test-1-2-3",
			"_type": "request"
		},
		{
			"_id": "req_90f8873615594199a3e6f3e5c8776cf4",
			"authentication": {},
			"body": {
				"mimeType": "application/json",
				"text": "{\n\t\"title\": \"344234324\",\n\t\"author\": \"String-author\",\n\t\"date\": 1546874625353,\n\t\"slug\": \"String-slug\",\n\t\"text\": \"String\",\n\t\"tags\": [\n\t\t\"String\"\n\t],\n\t\"views\": 34,\n\t\"comment\": [\n\t\t\"String\"\n\t],\n\t\"userScore\": 44\n}"
			},
			"created": 1546884416718,
			"description": "",
			"headers": [
				{
					"id": "pair_71125e032e584e28a35d7f19d66b91e3",
					"name": "Content-Type",
					"value": "application/json"
				}
			],
			"isPrivate": false,
			"metaSortKey": -1546821001881,
			"method": "PUT",
			"modified": 1546894824608,
			"name": "/article/:id",
			"parameters": [],
			"parentId": "fld_08b4600c772c401ba95a7f6a87725613",
			"settingDisableRenderRequestBody": false,
			"settingEncodeUrl": true,
			"settingMaxTimelineDataSize": 1000,
			"settingRebuildPath": true,
			"settingSendCookies": true,
			"settingStoreCookies": true,
			"url": "http://localhost:4200/blog/article/5c3371a2ab9768058ca09756",
			"_type": "request"
		},
		{
			"_id": "req_40d265ba7225416fbac9a81929427413",
			"authentication": {},
			"body": {},
			"created": 1546884739503,
			"description": "",
			"headers": [],
			"isPrivate": false,
			"metaSortKey": -1546821001781,
			"method": "DELETE",
			"modified": 1546894828660,
			"name": "/article/:id",
			"parameters": [],
			"parentId": "fld_08b4600c772c401ba95a7f6a87725613",
			"settingDisableRenderRequestBody": false,
			"settingEncodeUrl": true,
			"settingMaxTimelineDataSize": 1000,
			"settingRebuildPath": true,
			"settingSendCookies": true,
			"settingStoreCookies": true,
			"url": "http://localhost:4200/blog/article/5c3371a2ab9768058ca09756",
			"_type": "request"
		},
		{
			"_id": "req_bb9543144beb4d4b852c627ee94bf270",
			"authentication": {},
			"body": {},
			"created": 1546885681616,
			"description": "",
			"headers": [],
			"isPrivate": false,
			"metaSortKey": -1546821001968.5,
			"method": "GET",
			"modified": 1546894795956,
			"name": "/top",
			"parameters": [],
			"parentId": "fld_08b4600c772c401ba95a7f6a87725613",
			"settingDisableRenderRequestBody": false,
			"settingEncodeUrl": true,
			"settingMaxTimelineDataSize": 1000,
			"settingRebuildPath": true,
			"settingSendCookies": true,
			"settingStoreCookies": true,
			"url": "http://localhost:4200/blog/top",
			"_type": "request"
		},
		{
			"_id": "req_7bc6213821c648478508adb5ddefbf28",
			"authentication": {},
			"body": {},
			"created": 1546885463735,
			"description": "",
			"headers": [],
			"isPrivate": false,
			"metaSortKey": -1546885463735,
			"method": "POST",
			"modified": 1546885463735,
			"name": "/user",
			"parameters": [],
			"parentId": "fld_a6aba940d79d47c6baf3689cbe588a44",
			"settingDisableRenderRequestBody": false,
			"settingEncodeUrl": true,
			"settingMaxTimelineDataSize": 1000,
			"settingRebuildPath": true,
			"settingSendCookies": true,
			"settingStoreCookies": true,
			"url": "",
			"_type": "request"
		},
		{
			"_id": "req_0a501e111bd04c9f88231a6c3e588d90",
			"authentication": {},
			"body": {},
			"created": 1546885520402,
			"description": "",
			"headers": [],
			"isPrivate": false,
			"metaSortKey": -1546885447632.3125,
			"method": "GET",
			"modified": 1546885618394,
			"name": "/user:id",
			"parameters": [],
			"parentId": "fld_a6aba940d79d47c6baf3689cbe588a44",
			"settingDisableRenderRequestBody": false,
			"settingEncodeUrl": true,
			"settingMaxTimelineDataSize": 1000,
			"settingRebuildPath": true,
			"settingSendCookies": true,
			"settingStoreCookies": true,
			"url": "",
			"_type": "request"
		},
		{
			"_id": "req_cb372aaa16bf4dd981e143bb1161d497",
			"authentication": {},
			"body": {},
			"created": 1546885522968,
			"description": "",
			"headers": [],
			"isPrivate": false,
			"metaSortKey": -1546885399324.25,
			"method": "DELETE",
			"modified": 1546885607468,
			"name": "/user:id",
			"parameters": [],
			"parentId": "fld_a6aba940d79d47c6baf3689cbe588a44",
			"settingDisableRenderRequestBody": false,
			"settingEncodeUrl": true,
			"settingMaxTimelineDataSize": 1000,
			"settingRebuildPath": true,
			"settingSendCookies": true,
			"settingStoreCookies": true,
			"url": "",
			"_type": "request"
		},
		{
			"_id": "req_57f3b5a37a79428fb577a7f80b7b6594",
			"authentication": {},
			"body": {},
			"created": 1546885523456,
			"description": "",
			"headers": [],
			"isPrivate": false,
			"metaSortKey": -1546885431529.625,
			"method": "PUT",
			"modified": 1546885600586,
			"name": "/user:id",
			"parameters": [],
			"parentId": "fld_a6aba940d79d47c6baf3689cbe588a44",
			"settingDisableRenderRequestBody": false,
			"settingEncodeUrl": true,
			"settingMaxTimelineDataSize": 1000,
			"settingRebuildPath": true,
			"settingSendCookies": true,
			"settingStoreCookies": true,
			"url": "",
			"_type": "request"
		},
		{
			"_id": "req_8f99afa2b9854879abc1d49b60451adb",
			"authentication": {},
			"body": {},
			"created": 1546885311050,
			"description": "",
			"headers": [],
			"isPrivate": false,
			"metaSortKey": -1546885311050,
			"method": "GET",
			"modified": 1546885341049,
			"name": "/tags/:tags",
			"parameters": [],
			"parentId": "fld_fff9a19feb7045fc84a57f1d0710a7cb",
			"settingDisableRenderRequestBody": false,
			"settingEncodeUrl": true,
			"settingMaxTimelineDataSize": 1000,
			"settingRebuildPath": true,
			"settingSendCookies": true,
			"settingStoreCookies": true,
			"url": "",
			"_type": "request"
		},
		{
			"_id": "req_514fe1c6d8a6438ba368598dbed90fe5",
			"authentication": {},
			"body": {},
			"created": 1546885362417,
			"description": "",
			"headers": [],
			"isPrivate": false,
			"metaSortKey": -1546885362417,
			"method": "GET",
			"modified": 1546885362417,
			"name": "/author/:authort",
			"parameters": [],
			"parentId": "fld_fff9a19feb7045fc84a57f1d0710a7cb",
			"settingDisableRenderRequestBody": false,
			"settingEncodeUrl": true,
			"settingMaxTimelineDataSize": 1000,
			"settingRebuildPath": true,
			"settingSendCookies": true,
			"settingStoreCookies": true,
			"url": "",
			"_type": "request"
		},
		{
			"_id": "req_bcf7dfeb56f54d46af25f48580e8c9e1",
			"authentication": {},
			"body": {},
			"created": 1546885377854,
			"description": "",
			"headers": [],
			"isPrivate": false,
			"metaSortKey": -1546885377854,
			"method": "GET",
			"modified": 1546885377854,
			"name": "/score/:score",
			"parameters": [],
			"parentId": "fld_fff9a19feb7045fc84a57f1d0710a7cb",
			"settingDisableRenderRequestBody": false,
			"settingEncodeUrl": true,
			"settingMaxTimelineDataSize": 1000,
			"settingRebuildPath": true,
			"settingSendCookies": true,
			"settingStoreCookies": true,
			"url": "",
			"_type": "request"
		}
	]
}